Tag Library Index 1.1.0
BUILDPATH_DIRTY|false
BUILDPATH_ENTRIES|44
JAR|false|false|/Users/zsmith/.m2/repository/org/bouncycastle/bcprov-jdk16/1.46/bcprov-jdk16-1.46.jar
JAR|false|false|/Users/zsmith/.m2/repository/org/apache/commons/commons-pool2/2.4.2/commons-pool2-2.4.2.jar
JAR|false|false|/Library/Java/JavaVirtualMachines/jdk1.8.0_171.jdk/Contents/Home/jre/lib/ext/cldrdata.jar
JAR|false|false|/Library/Java/JavaVirtualMachines/jdk1.8.0_171.jdk/Contents/Home/jre/lib/ext/sunjce_provider.jar
JAR|false|false|/Users/zsmith/.m2/repository/org/springframework/spring-web/4.2.5.RELEASE/spring-web-4.2.5.RELEASE.jar
JAR|false|false|/Library/Java/JavaVirtualMachines/jdk1.8.0_171.jdk/Contents/Home/jre/lib/jfr.jar
JAR|false|false|/Library/Java/JavaVirtualMachines/jdk1.8.0_171.jdk/Contents/Home/jre/lib/jsse.jar
JAR|false|false|/Users/zsmith/.m2/repository/org/postgresql/postgresql/9.4.1208/postgresql-9.4.1208.jar
JAR|false|false|/Users/zsmith/.m2/repository/org/springframework/spring-test/4.2.5.RELEASE/spring-test-4.2.5.RELEASE.jar
JAR|false|false|/Users/zsmith/.m2/repository/com/fasterxml/jackson/core/jackson-core/2.5.0/jackson-core-2.5.0.jar
JAR|false|false|/Users/zsmith/.m2/repository/org/springframework/spring-context/4.2.5.RELEASE/spring-context-4.2.5.RELEASE.jar
JAR|false|false|/Users/zsmith/.m2/repository/junit/junit/4.12/junit-4.12.jar
JAR|false|false|/Users/zsmith/.m2/repository/org/springframework/spring-aop/4.2.5.RELEASE/spring-aop-4.2.5.RELEASE.jar
JAR|false|false|/Library/Java/JavaVirtualMachines/jdk1.8.0_171.jdk/Contents/Home/jre/lib/ext/jfxrt.jar
JAR|false|false|/Users/zsmith/.m2/repository/org/apache/commons/commons-dbcp2/2.1.1/commons-dbcp2-2.1.1.jar
JAR|false|false|/Users/zsmith/.m2/repository/org/hamcrest/hamcrest-core/1.3/hamcrest-core-1.3.jar
JAR|false|false|/Library/Java/JavaVirtualMachines/jdk1.8.0_171.jdk/Contents/Home/jre/lib/charsets.jar
JAR|false|false|/Library/Java/JavaVirtualMachines/jdk1.8.0_171.jdk/Contents/Home/jre/lib/ext/zipfs.jar
JAR|false|false|/Library/Java/JavaVirtualMachines/jdk1.8.0_171.jdk/Contents/Home/jre/lib/ext/dnsns.jar
JAR|false|false|/Library/Java/JavaVirtualMachines/jdk1.8.0_171.jdk/Contents/Home/jre/lib/ext/localedata.jar
JAR|false|false|/Users/zsmith/.m2/repository/org/mockito/mockito-all/1.10.19/mockito-all-1.10.19.jar
JAR|false|false|/Users/zsmith/.m2/repository/javax/servlet/javax.servlet-api/3.1.0/javax.servlet-api-3.1.0.jar
JAR|false|false|/Users/zsmith/.m2/repository/aopalliance/aopalliance/1.0/aopalliance-1.0.jar
JAR|false|false|/Users/zsmith/.m2/repository/org/springframework/spring-beans/4.2.5.RELEASE/spring-beans-4.2.5.RELEASE.jar
JAR|false|false|/Users/zsmith/.m2/repository/org/springframework/spring-jdbc/4.2.5.RELEASE/spring-jdbc-4.2.5.RELEASE.jar
JAR|false|false|/Users/zsmith/.m2/repository/javax/servlet/jstl/1.2/jstl-1.2.jar
URL|false|jar:file:/Users/zsmith/.m2/repository/javax/servlet/jstl/1.2/jstl-1.2.jar!/META-INF/sql-1_0.tld
URL|false|jar:file:/Users/zsmith/.m2/repository/javax/servlet/jstl/1.2/jstl-1.2.jar!/META-INF/scriptfree.tld
URL|false|jar:file:/Users/zsmith/.m2/repository/javax/servlet/jstl/1.2/jstl-1.2.jar!/META-INF/c.tld
URL|false|jar:file:/Users/zsmith/.m2/repository/javax/servlet/jstl/1.2/jstl-1.2.jar!/META-INF/fmt-1_0.tld
URL|false|jar:file:/Users/zsmith/.m2/repository/javax/servlet/jstl/1.2/jstl-1.2.jar!/META-INF/fn.tld
URL|false|jar:file:/Users/zsmith/.m2/repository/javax/servlet/jstl/1.2/jstl-1.2.jar!/META-INF/x.tld
URL|false|jar:file:/Users/zsmith/.m2/repository/javax/servlet/jstl/1.2/jstl-1.2.jar!/META-INF/sql-1_0-rt.tld
URL|false|jar:file:/Users/zsmith/.m2/repository/javax/servlet/jstl/1.2/jstl-1.2.jar!/META-INF/fmt-1_0-rt.tld
URL|false|jar:file:/Users/zsmith/.m2/repository/javax/servlet/jstl/1.2/jstl-1.2.jar!/META-INF/x-1_0.tld
URL|false|jar:file:/Users/zsmith/.m2/repository/javax/servlet/jstl/1.2/jstl-1.2.jar!/META-INF/permittedTaglibs.tld
URL|false|jar:file:/Users/zsmith/.m2/repository/javax/servlet/jstl/1.2/jstl-1.2.jar!/META-INF/x-1_0-rt.tld
URL|false|jar:file:/Users/zsmith/.m2/repository/javax/servlet/jstl/1.2/jstl-1.2.jar!/META-INF/sql.tld
URL|false|jar:file:/Users/zsmith/.m2/repository/javax/servlet/jstl/1.2/jstl-1.2.jar!/META-INF/c-1_0-rt.tld
URL|false|jar:file:/Users/zsmith/.m2/repository/javax/servlet/jstl/1.2/jstl-1.2.jar!/META-INF/c-1_0.tld
URL|false|jar:file:/Users/zsmith/.m2/repository/javax/servlet/jstl/1.2/jstl-1.2.jar!/META-INF/fmt.tld
JAR|false|false|/Users/zsmith/.m2/repository/org/springframework/spring-core/4.2.5.RELEASE/spring-core-4.2.5.RELEASE.jar
JAR|false|false|/Library/Java/JavaVirtualMachines/jdk1.8.0_171.jdk/Contents/Home/jre/lib/ext/jaccess.jar
JAR|false|false|/Library/Java/JavaVirtualMachines/jdk1.8.0_171.jdk/Contents/Home/jre/lib/resources.jar
JAR|false|false|/System/Library/Java/Extensions/MRJToolkit.jar
JAR|false|false|/Users/zsmith/.m2/repository/org/springframework/spring-expression/4.2.5.RELEASE/spring-expression-4.2.5.RELEASE.jar
JAR|false|false|/Users/zsmith/.m2/repository/commons-logging/commons-logging/1.2/commons-logging-1.2.jar
JAR|false|false|/Users/zsmith/.m2/repository/com/fasterxml/jackson/core/jackson-annotations/2.5.0/jackson-annotations-2.5.0.jar
JAR|false|false|/Users/zsmith/.m2/repository/com/fasterxml/jackson/core/jackson-databind/2.5.0/jackson-databind-2.5.0.jar
JAR|false|false|/Library/Java/JavaVirtualMachines/jdk1.8.0_171.jdk/Contents/Home/jre/lib/rt.jar
JAR|false|false|/Library/Java/JavaVirtualMachines/jdk1.8.0_171.jdk/Contents/Home/jre/lib/jce.jar
JAR|false|false|/Users/zsmith/.m2/repository/org/springframework/spring-webmvc/4.2.5.RELEASE/spring-webmvc-4.2.5.RELEASE.jar
URL|false|jar:file:/Users/zsmith/.m2/repository/org/springframework/spring-webmvc/4.2.5.RELEASE/spring-webmvc-4.2.5.RELEASE.jar!/META-INF/spring-form.tld
URL|false|jar:file:/Users/zsmith/.m2/repository/org/springframework/spring-webmvc/4.2.5.RELEASE/spring-webmvc-4.2.5.RELEASE.jar!/META-INF/spring.tld
JAR|false|false|/Library/Java/JavaVirtualMachines/jdk1.8.0_171.jdk/Contents/Home/jre/lib/ext/nashorn.jar
JAR|false|false|/Library/Java/JavaVirtualMachines/jdk1.8.0_171.jdk/Contents/Home/jre/lib/ext/sunec.jar
JAR|false|false|/Users/zsmith/.m2/repository/org/springframework/spring-tx/4.2.5.RELEASE/spring-tx-4.2.5.RELEASE.jar
JAR|false|false|/Library/Java/JavaVirtualMachines/jdk1.8.0_171.jdk/Contents/Home/jre/lib/ext/sunpkcs11.jar
