<?xml version="1.0" encoding="UTF-8"?>
<session version="1.0">
<refactoring comment="Rename resource &apos;capstone/src/main/webapp/WEB-INF/jsp/rating.jsp&apos; to &apos;review.jsp&apos;" description="Rename resource &apos;rating.jsp&apos;" flags="7" id="org.eclipse.ltk.core.refactoring.rename.resource" input="src/main/webapp/WEB-INF/jsp/rating.jsp" name="review.jsp" stamp="1534885642665" updateReferences="true"/>
</session>