INDEX VERSION 1.130+/Users/zsmith/Development/workspace/mvc-from-scratch/.metadata/.plugins/org.eclipse.jdt.core
160845849.index
1144384042.index
2918544000.index
338626639.index
1561096866.index
4061796439.index
4101167580.index
1271342938.index
1241710292.index
4217049803.index
2723170652.index
1654975474.index
175476994.index
1633814629.index
4044169984.index
969408668.index
941210201.index
1140791357.index
1624768958.index
1672065500.index
2149466930.index
3766893981.index
16438414.index
4190343708.index
288112982.index
1653335996.index
3459828603.index
1809548371.index
2254170629.index
2678560404.index
