<?xml version="1.0" encoding="UTF-8"?>
<session version="1.0">
<refactoring accessors="true" comment="Delete element from project &apos;polymorphism-exercises&apos;&#x0A;- Original project: &apos;polymorphism-exercises&apos;&#x0A;- Original element: &apos;com.techelevator.Worker.java&apos;" description="Delete element" element1="/src\/main\/java&lt;com.techelevator{Worker.java" elements="1" flags="589830" id="org.eclipse.jdt.ui.delete" resources="0" stamp="1528461674023" subPackages="false" version="1.0"/>
</session>