INDEX VERSION 1.4+/Users/zsmith/Development/workspace/HelloWorld/.metadata/.plugins/org.eclipse.wst.jsdt.core/indexes
3140647830.index
658181710.index
3949917097.index
1768952474.index
3444829581.index
464927600.index
3964624770.index
1432062127.index
1888263678.index
1106039289.index
3813210502.index
1190072243.index
482625059.index
